estoque,descricao,preco,imagem
10 unidades,café santa origem sachê cx c/ 30 unid,60.14,https://midhaz.imgix.net/products/5a33bdf149a792505ddfd93b/5ad8e56e2a35a02fed1f3efc/2f07d12158964e169646b8263349842e.jpg?w=230&h=150
11 unidades,villa café gourmet torrado e moído,13.7,https://midhaz.imgix.net/products/5a33bdf149a792505ddfd93b/5ad8e1f92a35a02fed1f3a7e/8fa0df93e851400a9107e73603ab53f2.jpg?w=230&h=150
8 unidades,villa café - 100% arábica,11.73,https://midhaz.imgix.net/products/5a33bdf149a792505ddfd93b/5ad8e31f2a35a02fed1f3b36/184b14ca11be4a8dbb5d535673d1b428.jpg?w=230&h=150
30 unidades,villa café em sachê 30 unidades,53.24,https://midhaz.imgix.net/products/5a33bdf149a792505ddfd93b/5ad8e6bf2a35a02fed1f3f3c/0c89456db53341e1ae35629ea76e89b1.jpg?w=230&h=150
8 unidades,"tinta primor azul master galão 3,7 lts",54.93,https://midhaz.imgix.net/products/5b97c295c4948b0dd454b782/5b9bba6250c36c0dc06e8133/image-title-1543770726.png?w=230&h=150
9 unidades,"tinta primor vermelha master galão 3,6 lts",45.97,https://midhaz.imgix.net/products/5b97c295c4948b0dd454b782/5b9bc0082f7bb50e37e36b1c/image-title-1543770670.png?w=230&h=150
20 unidades,suporte anel ring premium preto,3.94,https://midhaz.imgix.net/products/5aeb1f18f4a90d0d1dd0fbcb/5b3a765e9723b15f02ebd981/image-title-1547482693.jpg?w=230&h=150
7 unidades,jogo de chave 6 em 1 planeta telecom mod,38.45,https://midhaz.imgix.net/products/5aeb1f18f4a90d0d1dd0fbcb/5b35047b9723b16d02aa28a0/image-title-1547479512.jpg?w=230&h=150
8 unidades,fone de ouvido metal p2,13.8,https://midhaz.imgix.net/products/5aeb1f18f4a90d0d1dd0fbcb/5b351ad19723b16d02aa65d8/image-title-1530206929.jpg?w=230&h=150
7 unidades,carregador portátil universal para notebook,48.87,https://midhaz.imgix.net/products/5aeb1f18f4a90d0d1dd0fbcb/5b3bc3dab3176f0885ddcbb5/image-title-1530643418.jpg?w=230&h=150
5 unidades,carregador planeta telecom mod 151 vermelho,13.8,https://midhaz.imgix.net/products/5aeb1f18f4a90d0d1dd0fbcb/5b34decc9723b16d02a9cc9b/image-title-1547482197.jpg?w=230&h=150
11 unidades,cabo hdmi hdtv versão 1.4 de 3 metros,21.69,https://midhaz.imgix.net/products/5aeb1f18f4a90d0d1dd0fbcb/5bbcde1c420854279a9d8718/image-title-1547480069.jpg?w=230&h=150
5 unidades,cabo de dados usb/micro usb 3 metros branco,9.37,https://midhaz.imgix.net/products/5aeb1f18f4a90d0d1dd0fbcb/5b3bb499b3176f0885dd8f69/image-title-1547479889.jpg?w=230&h=150
6 unidades,suporte magnético veicular para celular,12.32,https://midhaz.imgix.net/products/5aeb1f18f4a90d0d1dd0fbcb/5b3bcbe8b3176f0885de13f9/image-title-1547482887.jpg?w=230&h=150
3 unidades,capa sitdry preta banco traseiro,168.87,https://midhaz.imgix.net/products/5a1d919949a79235c248c1f7/5a2fc5ca49a792505ddf9f02/capa-sitdry-preta-banco-traseiro-1545334871.jpg?w=230&h=150
2 unidades,capa sitdry preta banco dianteiro,95.63,https://midhaz.imgix.net/products/5a1d919949a79235c248c1f7/5a2ee90d49a792505ddf9e0b/capa-sitdry-banco-dianteiro-1545334663.jpg?w=230&h=150
2 unidades,capa sitdry cinza banco dianteiro,95.63,https://midhaz.imgix.net/products/5a1d919949a79235c248c1f7/5a2fc34e49a792505ddf9efd/capa-sitdry-cinza-banco-dianteiro-1545334700.jpg?w=230&h=150
